{
  "configVersion": 1,
  "timestamp": 1616676161763,
  "index": "/index.html",
  "assetGroups": [
    {
      "name": "app",
      "installMode": "prefetch",
      "updateMode": "prefetch",
      "cacheQueryOptions": {
        "ignoreVary": true
      },
      "urls": [
        "/10.8b0a39c36d3002391afe.js",
        "/11.10b5e3caa8920c04ba9e.js",
        "/12.3901888b5f8cb7bcb1b5.js",
        "/13.501f0105a7c668876e37.js",
        "/14.b05751c9d4cca222285e.js",
        "/15.9d94ad19ea188de943c3.js",
        "/16.9dfdb896fe66d10cec16.js",
        "/17.cee53fe2be476b0ab755.js",
        "/18.7ca837c67374eb1fa91c.js",
        "/19.8a352605f9bdfe3810f4.js",
        "/2.6b3d2b9acf15e8322912.js",
        "/20.ae8221b0fe2700966f5e.js",
        "/21.7e023f6306a4dbfb23f0.js",
        "/22.cd8e6c0125945e209c0c.js",
        "/23.2561e82f89b9cf20f005.js",
        "/24.f10b73869b674ea994ea.js",
        "/25.8047237338713ad3cf7a.js",
        "/26.a18801d69b8fb17071ee.js",
        "/27.12f4d201908c628e56fd.js",
        "/28.266786d2113bf12eb2d9.js",
        "/29.95876e08820e696dee61.js",
        "/3.c30609001b9481c84bc4.js",
        "/30.d2e9b49d35a3c66ec6f8.js",
        "/31.96c33fad320fa5f01da7.js",
        "/32.fd9d76b82c9d04d5086e.js",
        "/33.e91d9785f19e9cc22976.js",
        "/34.4c61cb508bf8ad01e935.js",
        "/35.3146693144ee27ab1a6e.js",
        "/36.e1abab8216fa58bf19dd.js",
        "/37.60d20a8237964ffceb47.js",
        "/38.5f8f38c30f143ddb1ce0.js",
        "/39.c6acd90f203c06d6f274.js",
        "/40.ec3b5d824eba736b0aaa.js",
        "/41.d661881897a18e102357.js",
        "/42.180a3292f8af434cf16f.js",
        "/43.7471e4ee8f57d91c2a5d.js",
        "/44.1a106c5d277e2c351e2f.js",
        "/45.a44db3ffc595083d389a.js",
        "/46.b343cc2cc2dfed19e9b9.js",
        "/47.36893d1517ca2344c941.js",
        "/48.a266973a28ad17fb6b74.js",
        "/49.b50fbaa669f886982919.js",
        "/50.0204683a0cf562963181.js",
        "/51.eace1d91bc12bf5c696c.js",
        "/52.2f1c5560a7c6883d6d80.js",
        "/53.e41ff522cd6023ced570.js",
        "/54.955607ccb373e0ad6e44.js",
        "/55.6e5bd58b51f3a4c68a49.js",
        "/56.3dee3164df72d7ba363d.js",
        "/57.725d3a11dabcbbfcb9e0.js",
        "/58.f688cc002a52ec3b8554.js",
        "/59.c67a9aa55be5ef4992a1.js",
        "/60.5c4334b7af16b7459595.js",
        "/61.e3ff45ec231cb65f3150.js",
        "/62.ad57c63598933e2d9f38.js",
        "/63.94eb6ed4e5d3dca6c9ea.js",
        "/common.655fb2df9ac98213768f.js",
        "/index.html",
        "/main.9c5ed380a6ae5c7569e0.js",
        "/manifest.webmanifest",
        "/polyfills-core-js.34a7a4f3eef21f09975c.js",
        "/polyfills-css-shim.a4f0c9194b673fea0eab.js",
        "/polyfills-dom.229f6ccdfd09cbe5701c.js",
        "/polyfills.c060f60bd822f41fc6bc.js",
        "/runtime.171c156160a377e037c7.js",
        "/styles.67d5c0a93b579c7cc624.css"
      ],
      "patterns": []
    },
    {
      "name": "assets",
      "installMode": "lazy",
      "updateMode": "prefetch",
      "cacheQueryOptions": {
        "ignoreVary": true
      },
      "urls": [
        "/assets/i18n/en.json",
        "/assets/i18n/es.json",
        "/assets/icon/favicon.png",
        "/assets/icons/icon-128x128.png",
        "/assets/icons/icon-144x144.png",
        "/assets/icons/icon-152x152.png",
        "/assets/icons/icon-192x192.png",
        "/assets/icons/icon-384x384.png",
        "/assets/icons/icon-512x512.png",
        "/assets/icons/icon-72x72.png",
        "/assets/icons/icon-96x96.png",
        "/assets/movieswallpaper.jpg",
        "/assets/shapes.svg",
        "/movieswallpaper.723b0b7d031d0ca32b76.jpg"
      ],
      "patterns": []
    }
  ],
  "dataGroups": [],
  "hashTable": {
    "/10.8b0a39c36d3002391afe.js": "13f38c0564dbc9445c6e0f6696fc30160fbfb0e5",
    "/11.10b5e3caa8920c04ba9e.js": "241869b066f6a1d67ebef9a7c002cbf58b872375",
    "/12.3901888b5f8cb7bcb1b5.js": "d2d6a0809c55e5e857d9797353697e37a1624669",
    "/13.501f0105a7c668876e37.js": "d3e26b5089d647c17d2fc279e6c342f0ee0bf6f8",
    "/14.b05751c9d4cca222285e.js": "4074b85cc3bdcc5c5ef34f8cd08160aa039daa2b",
    "/15.9d94ad19ea188de943c3.js": "d56620074c128048af94f83f096965a3ce5664e8",
    "/16.9dfdb896fe66d10cec16.js": "7101edbac10e2af5e02b480d901430c942547452",
    "/17.cee53fe2be476b0ab755.js": "f98f8a2814bdf5288c24b5581a854a12ee6f413a",
    "/18.7ca837c67374eb1fa91c.js": "3ecb8d6f5a94e3dfd032919db676428757142d92",
    "/19.8a352605f9bdfe3810f4.js": "10ed050442ad83c3b7091e65561b50966e5e5635",
    "/2.6b3d2b9acf15e8322912.js": "c491efc2015c342e54ef29b83c17392de0bfe0bf",
    "/20.ae8221b0fe2700966f5e.js": "ab23eb5ce9caaac14994e71740459c860ad1da07",
    "/21.7e023f6306a4dbfb23f0.js": "3aac90cb4a4bba3473e013ce3d21fbd370d40dfc",
    "/22.cd8e6c0125945e209c0c.js": "5f95875ffcebae0b6ea1be5c9d1adb114a0115dc",
    "/23.2561e82f89b9cf20f005.js": "0427748e381774612a22e9400e6a3c0fcfa6a818",
    "/24.f10b73869b674ea994ea.js": "bf1b67fea87ded869da33cd1645208c9467aa558",
    "/25.8047237338713ad3cf7a.js": "f057f5950c52d2a44fcb7a7e6740bae35b8f8e31",
    "/26.a18801d69b8fb17071ee.js": "49c14de947d164edfb3e4e2e2e33794a15214049",
    "/27.12f4d201908c628e56fd.js": "ac205c27c96c3535963b0a33e458e1f286bfd753",
    "/28.266786d2113bf12eb2d9.js": "a5d3e9998be2c3c1f0c93b8bafa4d13b29794722",
    "/29.95876e08820e696dee61.js": "865a79b6b22183bbab0c0e41e761aa1e943ba103",
    "/3.c30609001b9481c84bc4.js": "0d08651b8ea7cdc04c187dc74af47966dba1fa68",
    "/30.d2e9b49d35a3c66ec6f8.js": "7e16553a0ae6a642a48d7e45cc7442534b07a96e",
    "/31.96c33fad320fa5f01da7.js": "9e5caec04b252e7631a8c7299942fc8182ef7a53",
    "/32.fd9d76b82c9d04d5086e.js": "b74155c9737aecac43f88f53e0f8d90cf7564f8c",
    "/33.e91d9785f19e9cc22976.js": "a8f7969ed1cf1c810f4220789647cf35d1744278",
    "/34.4c61cb508bf8ad01e935.js": "aa91674baac08389b840f6cce40e45a9575fe4a9",
    "/35.3146693144ee27ab1a6e.js": "3b542bc3ba3e9f3f36d24cb8ca7e7aa1b2788a5e",
    "/36.e1abab8216fa58bf19dd.js": "1459e16e4d3df01accd0d79d794c06fc512781a4",
    "/37.60d20a8237964ffceb47.js": "ed0b7e878cf98b7e981ef9c5742fcdd4701621a6",
    "/38.5f8f38c30f143ddb1ce0.js": "865374e4a0ee8638c8df8bba92b7c79ee6961754",
    "/39.c6acd90f203c06d6f274.js": "8181ad6dcb92925e872134599da5b91889220d8b",
    "/40.ec3b5d824eba736b0aaa.js": "4d855077fb1fa8f2b6fa380716ff389a0e3b028f",
    "/41.d661881897a18e102357.js": "55d72c7bad20aedfa3106e1ea55e3e2bdc9c86b4",
    "/42.180a3292f8af434cf16f.js": "b40c423f6ecfecb7fc00685f6e77eda2368087a2",
    "/43.7471e4ee8f57d91c2a5d.js": "43eec10eead7ff77f6d50d63091748ad7467badf",
    "/44.1a106c5d277e2c351e2f.js": "221f0d665931de527c10b97a00e3f79e14c2a554",
    "/45.a44db3ffc595083d389a.js": "527c74131c92ad387f030b6dc119155184310109",
    "/46.b343cc2cc2dfed19e9b9.js": "6f334a44c1908947e8a6e6296ae116bcd4c888cb",
    "/47.36893d1517ca2344c941.js": "7f817bd9e36ea2131f2268fbc7a32a523a74353a",
    "/48.a266973a28ad17fb6b74.js": "a25b4e5a968ac787b876300576b331f4e1c2c23c",
    "/49.b50fbaa669f886982919.js": "36e216bd68f9f314d3b1bc4df7f6f6ce9f8b5d0c",
    "/50.0204683a0cf562963181.js": "1e7aff2fef07d8543167975efb5df491ca6a0839",
    "/51.eace1d91bc12bf5c696c.js": "7a13c2767820787bee3a196a6b9647df075765e4",
    "/52.2f1c5560a7c6883d6d80.js": "d9dee8402f5af8d6765e2def8387ff23b1b58bbb",
    "/53.e41ff522cd6023ced570.js": "686c526d34728fa1fff0d6a6b0cbaf5e94637c90",
    "/54.955607ccb373e0ad6e44.js": "5247b7b0f2dde64a5341933abde0c0edc0f9721d",
    "/55.6e5bd58b51f3a4c68a49.js": "53adfeea670748dc0110bfd5673ceae3c3229792",
    "/56.3dee3164df72d7ba363d.js": "922f32225dec5c2e77383b1caba28d736c31fede",
    "/57.725d3a11dabcbbfcb9e0.js": "d32690904e6d633bd872f719ccad8496fcb315d8",
    "/58.f688cc002a52ec3b8554.js": "67ad06ab911086ee0134c7af5cbb05ec0bd074c5",
    "/59.c67a9aa55be5ef4992a1.js": "d61b57506b1a63383f63939b872ec20a686c4c71",
    "/60.5c4334b7af16b7459595.js": "7dbe49822b83174b90e45b9e963b645a60594d0e",
    "/61.e3ff45ec231cb65f3150.js": "fe8d6768814d45062caa74b0eb7e7840f96088d3",
    "/62.ad57c63598933e2d9f38.js": "352d527514c19fc1cdcb6c942d7f6169eee3d6c0",
    "/63.94eb6ed4e5d3dca6c9ea.js": "c58d6029cb7344ab4fb25b83c96fb48b0de1424b",
    "/assets/i18n/en.json": "4d9636b1d8b69579915198638fbd634ede50d559",
    "/assets/i18n/es.json": "16c88a10fbeadfc095d6ab5c161802935eea415a",
    "/assets/icon/favicon.png": "8c9c2653d0ce81ce61f5e3a7af4800bbf6161543",
    "/assets/icons/icon-128x128.png": "dae3b6ed49bdaf4327b92531d4b5b4a5d30c7532",
    "/assets/icons/icon-144x144.png": "b0bd89982e08f9bd2b642928f5391915b74799a7",
    "/assets/icons/icon-152x152.png": "7479a9477815dfd9668d60f8b3b2fba709b91310",
    "/assets/icons/icon-192x192.png": "1abd80d431a237a853ce38147d8c63752f10933b",
    "/assets/icons/icon-384x384.png": "329749cd6393768d3131ed6304c136b1ca05f2fd",
    "/assets/icons/icon-512x512.png": "559d9c4318b45a1f2b10596bbb4c960fe521dbcc",
    "/assets/icons/icon-72x72.png": "c457e56089a36952cd67156f9996bc4ce54a5ed9",
    "/assets/icons/icon-96x96.png": "3914125a4b445bf111c5627875fc190f560daa41",
    "/assets/movieswallpaper.jpg": "42e25348d398c153a9e492cb4a2cc54d1ea5494b",
    "/assets/shapes.svg": "5413e95adabcb2cb639970051f55e0ddb64ace53",
    "/common.655fb2df9ac98213768f.js": "416246ddfd1ca8353c84c044461ad856d8d377e5",
    "/index.html": "6c76e0713796e63676a4c7af5a2f39b1af6d50d7",
    "/main.9c5ed380a6ae5c7569e0.js": "5c9f6dcec4e1f160f4cf720d05eea9854d1e6aea",
    "/manifest.webmanifest": "9a088b7c4339228d1082e666ce105dc889bc180c",
    "/movieswallpaper.723b0b7d031d0ca32b76.jpg": "42e25348d398c153a9e492cb4a2cc54d1ea5494b",
    "/polyfills-core-js.34a7a4f3eef21f09975c.js": "3d74d90a65b32ec6ecf12af7fca30e49ab4bee0b",
    "/polyfills-css-shim.a4f0c9194b673fea0eab.js": "711b1c46db714a81ab5b9a69aa8736cbd692d65f",
    "/polyfills-dom.229f6ccdfd09cbe5701c.js": "3455849cad83b87b1a14b708e9b057e7d60ca34e",
    "/polyfills.c060f60bd822f41fc6bc.js": "dc1358a6c7a2e9b4c61d2306e9299468424de320",
    "/runtime.171c156160a377e037c7.js": "b1891e60d11de39df32a409333b830af7d12b02b",
    "/styles.67d5c0a93b579c7cc624.css": "06f98d996729147baf354c039d1b022fa2e63661"
  },
  "navigationUrls": [
    {
      "positive": true,
      "regex": "^\\/.*$"
    },
    {
      "positive": false,
      "regex": "^\\/(?:.+\\/)?[^/]*\\.[^/]*$"
    },
    {
      "positive": false,
      "regex": "^\\/(?:.+\\/)?[^/]*__[^/]*$"
    },
    {
      "positive": false,
      "regex": "^\\/(?:.+\\/)?[^/]*__[^/]*\\/.*$"
    }
  ],
  "navigationRequestStrategy": "performance"
}